^C:\USERS\NGUYE\ONEDRIVE\DOCUMENTS\VISUAL STUDIO 2012\PROJECTS\CANDY CRUSH\CANDY CRUSH\DEBUG\SOURCE.OBJ
/OUT:"C:\USERS\NGUYE\ONEDRIVE\DOCUMENTS\VISUAL STUDIO 2012\PROJECTS\CANDY CRUSH\DEBUG\CANDY CRUSH.EXE" /INCREMENTAL /NOLOGO kernel32.lib user32.lib gdi32.lib winspool.lib comdlg32.lib advapi32.lib shell32.lib ole32.lib oleaut32.lib uuid.lib odbc32.lib odbccp32.lib /MANIFEST /MANIFESTUAC:"level='asInvoker' uiAccess='false'" /manifest:embed /DEBUG /PDB:"C:\USERS\NGUYE\ONEDRIVE\DOCUMENTS\VISUAL STUDIO 2012\PROJECTS\CANDY CRUSH\DEBUG\CANDY CRUSH.PDB" /TLBID:1 /DYNAMICBASE /NXCOMPAT /IMPLIB:"C:\USERS\NGUYE\ONEDRIVE\DOCUMENTS\VISUAL STUDIO 2012\PROJECTS\CANDY CRUSH\DEBUG\CANDY CRUSH.LIB" /MACHINE:X86 DEBUG\SOURCE.OBJ
^C:\USERS\NGUYE\ONEDRIVE\DOCUMENTS\VISUAL STUDIO 2012\PROJECTS\CANDY CRUSH\CANDY CRUSH\DEBUG\EXECUTE.OBJ|C:\USERS\NGUYE\ONEDRIVE\DOCUMENTS\VISUAL STUDIO 2012\PROJECTS\CANDY CRUSH\CANDY CRUSH\DEBUG\MAIN.OBJ|C:\USERS\NGUYE\ONEDRIVE\DOCUMENTS\VISUAL STUDIO 2012\PROJECTS\CANDY CRUSH\CANDY CRUSH\DEBUG\MANIPULATE.OBJ|C:\USERS\NGUYE\ONEDRIVE\DOCUMENTS\VISUAL STUDIO 2012\PROJECTS\CANDY CRUSH\CANDY CRUSH\DEBUG\MATCH.OBJ|C:\USERS\NGUYE\ONEDRIVE\DOCUMENTS\VISUAL STUDIO 2012\PROJECTS\CANDY CRUSH\CANDY CRUSH\DEBUG\PROCESS.OBJ
/OUT:"C:\USERS\NGUYE\ONEDRIVE\DOCUMENTS\VISUAL STUDIO 2012\PROJECTS\CANDY CRUSH\DEBUG\CANDY CRUSH.EXE" /INCREMENTAL /NOLOGO kernel32.lib user32.lib gdi32.lib winspool.lib comdlg32.lib advapi32.lib shell32.lib ole32.lib oleaut32.lib uuid.lib odbc32.lib odbccp32.lib /MANIFEST /MANIFESTUAC:"level='asInvoker' uiAccess='false'" /manifest:embed /DEBUG /PDB:"C:\USERS\NGUYE\ONEDRIVE\DOCUMENTS\VISUAL STUDIO 2012\PROJECTS\CANDY CRUSH\DEBUG\CANDY CRUSH.PDB" /TLBID:1 /DYNAMICBASE /NXCOMPAT /IMPLIB:"C:\USERS\NGUYE\ONEDRIVE\DOCUMENTS\VISUAL STUDIO 2012\PROJECTS\CANDY CRUSH\DEBUG\CANDY CRUSH.LIB" /MACHINE:X86 DEBUG\MAIN.OBJDEBUG\MANIPULATE.OBJDEBUG\MATCH.OBJDEBUG\EXECUTE.OBJDEBUG\PROCESS.OBJ
^C:\USERS\NGUYE\DESKTOP\CANDY CRUSH\CANDY CRUSH\DEBUG\DATA.OBJ|C:\USERS\NGUYE\DESKTOP\CANDY CRUSH\CANDY CRUSH\DEBUG\EXECUTE.OBJ|C:\USERS\NGUYE\DESKTOP\CANDY CRUSH\CANDY CRUSH\DEBUG\FILE.OBJ|C:\USERS\NGUYE\DESKTOP\CANDY CRUSH\CANDY CRUSH\DEBUG\GRAPHIC.OBJ|C:\USERS\NGUYE\DESKTOP\CANDY CRUSH\CANDY CRUSH\DEBUG\MAIN.OBJ|C:\USERS\NGUYE\DESKTOP\CANDY CRUSH\CANDY CRUSH\DEBUG\MANIPULATE.OBJ|C:\USERS\NGUYE\DESKTOP\CANDY CRUSH\CANDY CRUSH\DEBUG\MATCH.OBJ|C:\USERS\NGUYE\DESKTOP\CANDY CRUSH\CANDY CRUSH\DEBUG\MENU.OBJ|C:\USERS\NGUYE\DESKTOP\CANDY CRUSH\CANDY CRUSH\DEBUG\PREPARE.OBJ
/OUT:"C:\USERS\NGUYE\DESKTOP\CANDY CRUSH\DEBUG\CANDY CRUSH.EXE" /INCREMENTAL /NOLOGO kernel32.lib user32.lib gdi32.lib winspool.lib comdlg32.lib advapi32.lib shell32.lib ole32.lib oleaut32.lib uuid.lib odbc32.lib odbccp32.lib /MANIFEST /MANIFESTUAC:"level='asInvoker' uiAccess='false'" /manifest:embed /DEBUG /PDB:"C:\USERS\NGUYE\DESKTOP\CANDY CRUSH\DEBUG\CANDY CRUSH.PDB" /TLBID:1 /DYNAMICBASE /NXCOMPAT /IMPLIB:"C:\USERS\NGUYE\DESKTOP\CANDY CRUSH\DEBUG\CANDY CRUSH.LIB" /MACHINE:X86 DEBUG\DATA.OBJDEBUG\FILE.OBJDEBUG\GRAPHIC.OBJDEBUG\MAIN.OBJDEBUG\MANIPULATE.OBJDEBUG\MATCH.OBJDEBUG\PREPARE.OBJDEBUG\MENU.OBJDEBUG\EXECUTE.OBJ
^C:\USERS\NGUYE\ONEDRIVE\DOCUMENTS\VISUAL STUDIO 2012\PROJECTS\CANDY CRUSH\CANDY CRUSH\DEBUG\DATA.OBJ|C:\USERS\NGUYE\ONEDRIVE\DOCUMENTS\VISUAL STUDIO 2012\PROJECTS\CANDY CRUSH\CANDY CRUSH\DEBUG\EXECUTE.OBJ|C:\USERS\NGUYE\ONEDRIVE\DOCUMENTS\VISUAL STUDIO 2012\PROJECTS\CANDY CRUSH\CANDY CRUSH\DEBUG\FILE.OBJ|C:\USERS\NGUYE\ONEDRIVE\DOCUMENTS\VISUAL STUDIO 2012\PROJECTS\CANDY CRUSH\CANDY CRUSH\DEBUG\GRAPHIC.OBJ|C:\USERS\NGUYE\ONEDRIVE\DOCUMENTS\VISUAL STUDIO 2012\PROJECTS\CANDY CRUSH\CANDY CRUSH\DEBUG\MAIN.OBJ|C:\USERS\NGUYE\ONEDRIVE\DOCUMENTS\VISUAL STUDIO 2012\PROJECTS\CANDY CRUSH\CANDY CRUSH\DEBUG\MANIPULATE.OBJ|C:\USERS\NGUYE\ONEDRIVE\DOCUMENTS\VISUAL STUDIO 2012\PROJECTS\CANDY CRUSH\CANDY CRUSH\DEBUG\MATCH.OBJ|C:\USERS\NGUYE\ONEDRIVE\DOCUMENTS\VISUAL STUDIO 2012\PROJECTS\CANDY CRUSH\CANDY CRUSH\DEBUG\MENU.OBJ|C:\USERS\NGUYE\ONEDRIVE\DOCUMENTS\VISUAL STUDIO 2012\PROJECTS\CANDY CRUSH\CANDY CRUSH\DEBUG\PREPARE.OBJ
/OUT:"C:\USERS\NGUYE\ONEDRIVE\DOCUMENTS\VISUAL STUDIO 2012\PROJECTS\CANDY CRUSH\DEBUG\CANDY CRUSH.EXE" /INCREMENTAL /NOLOGO kernel32.lib user32.lib gdi32.lib winspool.lib comdlg32.lib advapi32.lib shell32.lib ole32.lib oleaut32.lib uuid.lib odbc32.lib odbccp32.lib /MANIFEST /MANIFESTUAC:"level='asInvoker' uiAccess='false'" /manifest:embed /DEBUG /PDB:"C:\USERS\NGUYE\ONEDRIVE\DOCUMENTS\VISUAL STUDIO 2012\PROJECTS\CANDY CRUSH\DEBUG\CANDY CRUSH.PDB" /TLBID:1 /DYNAMICBASE /NXCOMPAT /IMPLIB:"C:\USERS\NGUYE\ONEDRIVE\DOCUMENTS\VISUAL STUDIO 2012\PROJECTS\CANDY CRUSH\DEBUG\CANDY CRUSH.LIB" /MACHINE:X86 DEBUG\DATA.OBJDEBUG\FILE.OBJDEBUG\GRAPHIC.OBJDEBUG\MAIN.OBJDEBUG\MANIPULATE.OBJDEBUG\MATCH.OBJDEBUG\PREPARE.OBJDEBUG\MENU.OBJDEBUG\EXECUTE.OBJ
^C:\USERS\NGUYE\DESKTOP\FINAL\CANDY CRUSH\CANDY CRUSH\DEBUG\DATA.OBJ|C:\USERS\NGUYE\DESKTOP\FINAL\CANDY CRUSH\CANDY CRUSH\DEBUG\EXECUTE.OBJ|C:\USERS\NGUYE\DESKTOP\FINAL\CANDY CRUSH\CANDY CRUSH\DEBUG\FILE.OBJ|C:\USERS\NGUYE\DESKTOP\FINAL\CANDY CRUSH\CANDY CRUSH\DEBUG\GRAPHIC.OBJ|C:\USERS\NGUYE\DESKTOP\FINAL\CANDY CRUSH\CANDY CRUSH\DEBUG\MAIN.OBJ|C:\USERS\NGUYE\DESKTOP\FINAL\CANDY CRUSH\CANDY CRUSH\DEBUG\MANIPULATE.OBJ|C:\USERS\NGUYE\DESKTOP\FINAL\CANDY CRUSH\CANDY CRUSH\DEBUG\MATCH.OBJ|C:\USERS\NGUYE\DESKTOP\FINAL\CANDY CRUSH\CANDY CRUSH\DEBUG\MENU.OBJ|C:\USERS\NGUYE\DESKTOP\FINAL\CANDY CRUSH\CANDY CRUSH\DEBUG\PREPARE.OBJ
/OUT:"C:\USERS\NGUYE\DESKTOP\FINAL\CANDY CRUSH\DEBUG\CANDY CRUSH.EXE" /INCREMENTAL /NOLOGO kernel32.lib user32.lib gdi32.lib winspool.lib comdlg32.lib advapi32.lib shell32.lib ole32.lib oleaut32.lib uuid.lib odbc32.lib odbccp32.lib /MANIFEST /MANIFESTUAC:"level='asInvoker' uiAccess='false'" /manifest:embed /DEBUG /PDB:"C:\USERS\NGUYE\DESKTOP\FINAL\CANDY CRUSH\DEBUG\CANDY CRUSH.PDB" /TLBID:1 /DYNAMICBASE /NXCOMPAT /IMPLIB:"C:\USERS\NGUYE\DESKTOP\FINAL\CANDY CRUSH\DEBUG\CANDY CRUSH.LIB" /MACHINE:X86 DEBUG\DATA.OBJDEBUG\FILE.OBJDEBUG\GRAPHIC.OBJDEBUG\MAIN.OBJDEBUG\MANIPULATE.OBJDEBUG\MATCH.OBJDEBUG\PREPARE.OBJDEBUG\MENU.OBJDEBUG\EXECUTE.OBJ
